<?xml version="1.0" encoding="UTF-8" standalone="no"?>
<svg
   xmlns:dc="http://purl.org/dc/elements/1.1/"
   xmlns:cc="http://creativecommons.org/ns#"
   xmlns:rdf="http://www.w3.org/1999/02/22-rdf-syntax-ns#"
   xmlns:svg="http://www.w3.org/2000/svg"
   xmlns="http://www.w3.org/2000/svg"
   xmlns:sodipodi="http://sodipodi.sourceforge.net/DTD/sodipodi-0.dtd"
   xmlns:inkscape="http://www.inkscape.org/namespaces/inkscape"
   version="1.1"
   id="Layer_1"
   x="0px"
   y="0px"
   viewBox="0 0 544.50001 96.500002"
   enable-background="new 0 0 595.3 699.8"
   xml:space="preserve"
   inkscape:version="0.91 r13725"
   sodipodi:docname="rmnavbarplan1.svg"
   width="544.5"
   height="96.5"><metadata
     id="metadata18"><rdf:RDF><cc:Work
         rdf:about=""><dc:format>image/svg+xml</dc:format><dc:type
           rdf:resource="http://purl.org/dc/dcmitype/StillImage" /><dc:title></dc:title></cc:Work></rdf:RDF></metadata><defs
     id="defs16" /><sodipodi:namedview
     pagecolor="#7d0006"
     bordercolor="#666666"
     borderopacity="1"
     objecttolerance="10"
     gridtolerance="10"
     guidetolerance="10"
     inkscape:pageopacity="0"
     inkscape:pageshadow="2"
     inkscape:window-width="1366"
     inkscape:window-height="706"
     id="namedview14"
     showgrid="false"
     inkscape:zoom="1.28"
     inkscape:cx="219.74179"
     inkscape:cy="26.127606"
     inkscape:window-x="-8"
     inkscape:window-y="-8"
     inkscape:window-maximized="1"
     inkscape:current-layer="Layer_1"
     fit-margin-top="0"
     fit-margin-left="0"
     fit-margin-right="0"
     fit-margin-bottom="0"
     showguides="true"
     inkscape:guide-bbox="true"
     inkscape:snap-bbox="false"
     inkscape:snap-others="true"><inkscape:grid
       type="xygrid"
       id="grid3366" /><sodipodi:guide
       position="437.5658,27.000001"
       orientation="0,1"
       id="guide3368" /></sodipodi:namedview><rect
     style="fill:#ffffff;fill-opacity:1;stroke-width:2;stroke-miterlimit:4;stroke-dasharray:none;stroke:#000000;stroke-opacity:1"
     height="47.099998"
     width="47.400002"
     y="49.400002"
     x="0"
     id="kitchen"
     inkscape:label="#XMLID_38_"
     onmouseover=""
     onmouseout=""><title
       id="title4158">Kitchen</title></rect><polygon
     style="fill:#ffffff;stroke:#000000;stroke-opacity:1;stroke-width:2;stroke-miterlimit:4;stroke-dasharray:none;fill-opacity:1"
     points="70,140.7 70,188.9 230.3,188.9 230.3,92.4 59.8,92.4 59.8,140.7 "
     id="coworking_1"
     inkscape:label="#XMLID_48_"
     transform="translate(-21.1,-92.4)"
     onmouseover=""
     onmouseout=""><title
       id="title4160">Co-working Space 1</title></polygon><rect
     style="fill:#fcd7aa;fill-opacity:1;stroke:#000000;stroke-opacity:1;stroke-width:2;stroke-miterlimit:4;stroke-dasharray:none"
     height="49.099998"
     width="57.400002"
     y="1.5258789e-06"
     x="210.5"
     id="mentor_room"
     inkscape:label="mentor_room"
     onclick="map_click(this)"
     onmouseover="map_hover(this)"
     onmouseout="map_unhover(this)"><title
       id="title4164">Mentor Room</title></rect><polyline
     style="fill:#ffffff;fill-opacity:1;stroke:#000000;stroke-width:2;stroke-miterlimit:4;stroke-dasharray:none;stroke-opacity:1"
     points="231.6,143.7 231.6,188.9 356.2,188.9 356.2,92.5 290.1,92.4 290.1,142.6    231.6,142.6  "
     id="coworking_2"
     inkscape:label="#XMLID_50_"
     transform="translate(-21.1,-92.4)"
     onmouseover=""
     onmouseout=""><title
       id="title4162"
       style="stroke:url(#linearGradient4853)">Co-working Space 2</title></polyline><polyline
     style="fill:#fcd7aa;fill-opacity:1;stroke:#000000;stroke-opacity:1;stroke-width:2;stroke-miterlimit:4;stroke-dasharray:none"
     points="481.8,92.5 481.8,140.7 502,140.7 502,188.9 565.6,188.9 565.6,92.4 483.8,92.5     "
     id="le_labo"
     inkscape:label="le_labo"
     transform="translate(-21.1,-92.4)"
     onclick="map_click(this)"
     onmouseover="map_hover(this)"
     onmouseout="map_unhover(this)"><title
       id="title4170">Le Labo</title></polyline><rect
     style="fill:#ffffff;fill-opacity:1;stroke:#000000;stroke-opacity:1;stroke-width:2;stroke-miterlimit:4;stroke-dasharray:none"
     height="48.200001"
     width="37.400002"
     y="1.5258789e-06"
     x="0"
     id="meeting_rooms"
     inkscape:label="#XMLID_47_"

        style="stroke: #000000; fill: #eeeeee;"
      onmouseover="this.style.stroke = '#ff0000'; this.style['stroke-width'] = 5;"
       onmouseout="this.style.stroke = '#000000'; this.style['stroke-width'] = 1;"

><title
       id="title4156">Meeting Rooms</title></rect><path
     id="cathedral"
     style="fill:#fcd7aa;fill-opacity:1;stroke:#000000;stroke-width:2;stroke-miterlimit:4;stroke-dasharray:none;stroke-opacity:1"
     d="m 427.50009,70.048874 32.44983,0 0,26.430771 -32.44983,0 z M 444.5,25.000002 l 15.4,0 0,44.504326 -15.4,0 z m -17,24.099996 16.2,0 0,20.402611 -16.2,0 z m 0,-24.099996 16.2,0 0,23.299999 -16.2,0 z M 459.9,24.2 459.9,0 336.1,0 l 0,48.3 90.5,0 0,-24.1 z"
     inkscape:label="cathedral"
     onclick="map_click(this)"
     onmouseover="map_hover(this)"
     onmouseout="map_unhover(this)"><title
       id="title4207">Cathedral</title></path></svg>